# Name,   Type, SubType, Offset,   Size
# Note: if you change the phy_init or app partition offset, make sure to change the offset in Kconfig.projbuild
nvs,      data, nvs,     0x9000,  0x4000
otadata,  data, ota,     0xd000,  0x2000
phy_init, data, phy,     0xf000,  0x1000
factory,  0,    0,       0x10000,  2M
coredump, data, coredump,,         64K
ota_0,    0,    ota_0,   ,         2M
ota_1,    0,    ota_1,   ,         2M
storage,  data, fat,     ,         1920K
